%YAML 1.1
%TAG !u! tag:unity3d.com,2011:
--- !u!114 &11400000
MonoBehaviour:
  m_ObjectHideFlags: 0
  m_CorrespondingSourceObject: {fileID: 0}
  m_PrefabInstance: {fileID: 0}
  m_PrefabAsset: {fileID: 0}
  m_GameObject: {fileID: 0}
  m_Enabled: 1
  m_EditorHideFlags: 0
  m_Script: {fileID: 11500000, guid: 169351fbe999d144b88e851b02ce3e7c, type: 3}
  m_Name: Healing
  m_EditorClassIdentifier: 
  dName: Healing
  dStartingTicks: 10
  dRemainingTicks: 10
  damage: 7
  isHealing: 1
